[
        {
            "model": "universe.location",
           "pk": 0,
            "fields": {

            "city": "Yerevan",
            "country": "Armenia",
            "latitude": 40.1811,
            "longitude":44.5136
            }
        },
         {
            "model": "universe.location",
           "pk": 1,
            "fields": {

            "city": "Washington DC",
            "country": "USA",
            "latitude": 38.895,
            "longitude":-77.0366
        }
        },
        {
            "model": "universe.location",
           "pk": 2,
            "fields": {

            "city": "Vientiane",
            "country": "Laos",
            "latitude": 17.9666,
            "longitude":102.6
        }
        },
        {
            "model": "universe.location",
           "pk": 3,
            "fields": {

            "city": "Tel Aviv",
            "country": "Israel",
            "latitude": 32.0677,
            "longitude":34.7647
        }
        },
        {
            "model": "universe.location",
           "pk": 4,
            "fields": {

            "city": "Tegucigalpa",
            "country": "Honduras",
            "latitude": 14.1,
            "longitude": -87.216
        }
        },
        {
            "model": "universe.location",
           "pk": 5,
            "fields": {

            "city": "Taipei",
            "country": "Taiwan",
            "latitude": 25.0391,
            "longitude":121.525
        }
        },
        {
            "model": "universe.location",
           "pk": 6,
            "fields": {

            "city": "Sykesville",
            "country": "USA",
            "latitude": 41.0503,
            "longitude":-78.822
        }
        },
        {
            "model": "universe.location",
           "pk": 7,
            "fields": {

            "city": "Suva",
            "country": "Fiji",
            "latitude": -18.1413,
            "longitude":178.441
        }
        },
        {
            "model": "universe.location",
           "pk": 8,
            "fields": {

            "city": "Saratoga",
            "country": "USA",
            "latitude": 37.263,
            "longitude":-122.021
        }
        },
          {
            "model": "universe.location",
           "pk": 9,
            "fields": {

            "city": "Santo Domingo",
            "country": "Dominican Republic",
            "latitude": 18.5,
            "longitude":-69.983
        }
        },
        {
            "model": "universe.location",
           "pk": 10,
            "fields": {

            "city": "Rangoon",
            "country": "Burma",
            "latitude": 16.7833,
            "longitude": 96.1666
        }
        },
          {
            "model": "universe.location",
           "pk": 11,
            "fields": {

            "city": "Ramallah",
            "country": "Palestinian Territories",
            "latitude": 31.9,
            "longitude":35.2
        }
        },
        {
            "model": "universe.location",
           "pk": 12,
            "fields": {

            "city": "Rabat",
            "country": "Morocco",
            "latitude":  34.0252,
            "longitude":-6.836
        }
        },
        {
            "model": "universe.location",
           "pk": 13,
            "fields": {

            "city": "Pristina",
            "country": "Kosovo",
            "latitude": 42.666,
            "longitude":21.166
        }
        },
        {
            "model": "universe.location",
           "pk": 14,
            "fields": {

            "city": "Panama City",
            "country": "Panama",
            "latitude": 8.9833,
            "longitude":-79.516
        }
        },
        {
            "model": "universe.location",
           "pk": 15,
            "fields": {

            "city": "Oslo",
            "country": "Norway",
            "latitude": 59.9166,
            "longitude": 10.75
        }
        },
        {
            "model": "universe.location",
           "pk": 16,
            "fields": {

            "city": "Oakland",
            "country": "USA",
            "latitude": 37.804,
            "longitude": -122.269
        }
        },
        {
            "model": "universe.location",
           "pk": 17,
            "fields": {

            "city": "Nicosia",
            "country": "Cyprus",
            "latitude": 35.166,
            "longitude":-33.3666
        }
        },
        {
            "model": "universe.location",
           "pk": 18,
            "fields": {

            "city": "New Smyrna Beach",
            "country": "USA",
            "latitude": 29.0255,
            "longitude":-80.927
        }
        },
        {
            "model": "universe.location",
           "pk": 19,
            "fields": {

            "city": "New Delhi",
            "country": "India",
            "latitude": 28.6,
            "longitude":77.2
        }
        },
        {
            "model": "universe.location",
           "pk": 20,
            "fields": {

            "city": "Maputo",
            "country": "Mozambique",
            "latitude": -25.965,
            "longitude":32.589
        }
        },
        {
            "model": "universe.location",
           "pk": 21,
            "fields": {

            "city": "Manila",
            "country": "Philippines",
            "latitude": 14.604,
            "longitude":120.982
        }
        },
        {
            "model": "universe.location",
           "pk": 22,
            "fields": {

            "city": "La Paz",
            "country": "Bolivia",
            "latitude":  -16.5,
            "longitude":-68.15
        }
        },
        {
            "model": "universe.location",
           "pk": 23,
            "fields": {

            "city": "Kyiv",
            "country": "Ukraine",
            "latitude": 50.43,
            "longitude":30.52
        }
        },
        {
            "model": "universe.location",
           "pk": 24,
            "fields": {

            "city": "Kuala Lampur",
            "country": "Malaysia",
            "latitude": 3.166,
            "longitude":101.7
        }
        },
         {
            "model": "universe.location",
           "pk": 25,
            "fields": {

            "city": "Klang Selangor",
            "country": "Malaysia",
            "latitude": 3.0333,
            "longitude":101.45
        }
        },
         {
            "model": "universe.location",
           "pk": 26,
            "fields": {

            "city": "Jakarta",
            "country": "Indonesia",
            "latitude": -6.174,
            "longitude":106.829
        }
        },
        {
            "model": "universe.location",
           "pk": 27,
            "fields": {

            "city": "Islamabad Punjab",
            "country": "Pakistan",
            "latitude": 33.7166,
            "longitude":73.066
        }
        },
        {
            "model": "universe.location",
           "pk": 28,
            "fields": {

            "city": "Islamabad",
            "country": "Pakistan",
            "latitude": 33.7166,
            "longitude":73.066
        }
        },{
            "model": "universe.location",
           "pk": 29,
            "fields": {

            "city": "Hong Kong",
            "country": "",
            "latitude":  22.25,
            "longitude": 114.166
        }
        },{
            "model": "universe.location",
            "pk": 30,
            "fields": {

            "city": "Havana",
            "country": "Cuba",
            "latitude": 23.133,
            "longitude":-82.383
        }
        },{
            "model": "universe.location",
            "pk": 31,
            "fields": {

            "city": "Harare",
            "country": "Zimbabwe",
            "latitude": -17.817,
            "longitude":31.044
        }
        },{
            "model": "universe.location",
            "pk": 32,
            "fields": {

            "city": "Hanoi",
            "country": "Vietnam",
            "latitude": 21.033,
            "longitude":105.85
        }
        },{
            "model": "universe.location",
            "pk": 33,
            "fields": {

            "city": "Dhaka",
            "country": "Bangladesh",
            "latitude": 23.72,
            "longitude":90.408
        }
        },{
            "model": "universe.location",
            "pk": 34,
            "fields": {

            "city": "Colombo",
            "country": "Sri Lanka",
            "latitude": 6.931,
            "longitude":79.847
        }
        },{
            "model": "universe.location",
            "pk": 35,
            "fields": {

            "city": "Bronx",
            "country": "USA",
            "latitude": 42.992,
            "longitude":-110.11
        }
        },{
            "model": "universe.location",
            "pk": 36,
            "fields": {

            "city": "Brattleboro",
            "country": "USA",
            "latitude": 42.850,
            "longitude":-72.558
        }
        },{
            "model": "universe.location",
            "pk": 37,
            "fields": {

            "city": "Brasilia",
            "country": "Brazil",
            "latitude": -15.783,
            "longitude":-47.916
        }
        },{
            "model": "universe.location",
            "pk": 38,
            "fields": {

            "city": "Bogota",
            "country": "Columbia",
            "latitude": 4.6,
            "longitude":-74.083
        }
        },{
            "model": "universe.location",
            "pk": 39,
            "fields": {

            "city": "Bishkek",
            "country": "Kyrgyz Republic",
            "latitude": 42.874,
            "longitude":74.6122
        }
        },{
            "model": "universe.location",
            "pk": 40,
            "fields": {

            "city": "Bishkek",
            "country": "Kyrgyz Republic",
            "latitude": 42.874,
            "longitude":74.6122
        }
        },{
            "model": "universe.location",
            "pk": 41,
            "fields": {

            "city": "Belgrade",
            "country": "Serbia",
            "latitude": 44.818,
            "longitude":20.468
        }
        },{
            "model": "universe.location",
            "pk": 42,
            "fields": {

            "city": "Baku",
            "country": "Azerbaijan",
            "latitude": 40.395,
            "longitude":49.882
        }
        },{
            "model": "universe.location",
            "pk": 43,
            "fields": {

            "city": "Baghdad",
            "country": "Iraq",
            "latitude": 33.338,
            "longitude":44.393
        }
        },{
            "model": "universe.location",
            "pk": 44,
            "fields": {

            "city": "Astana / Almaty",
            "country": "",
            "latitude": 51.181,
            "longitude": 71.427
        }
        },{
            "model": "universe.location",
            "pk": 45,
            "fields": {

            "city": "Ankara / Istanbul",
            "country": "Turkey",
            "latitude": 40.741,
            "longitude":31.564
        }
        },{
            "model": "universe.location",
            "pk": 46,
            "fields": {

            "city": "Amman",
            "country": "Jordan",
            "latitude": 31.933,
            "longitude":35.933
        }
        },
        {
            "model": "universe.location",
            "pk": 47,
            "fields": {

            "city": "New York",
            "country": "USA",
            "latitude":40.7127,
            "longitude":-74.0059
        }
        },{
            "model": "universe.location",
            "pk": 48,
            "fields": {

            "city": "Moscow",
            "country": "Russia",
            "latitude":55.45,
            "longitude":37.36
        }
        },{
            "model": "universe.location",
            "pk": 49,
            "fields": {

            "city": "Phnom Penh",
            "country": "Cambodia",
            "latitude":11.54,
            "longitude":104.89
        }
        },{
            "model": "universe.location",
            "pk": 50,
            "fields": {

            "city": "Beijing",
            "country": "China",
            "latitude":39.90,
            "longitude":116.40
        }
        },{
            "model": "universe.location",
            "pk": 51,
            "fields": {

            "city": "Prague",
            "country": "Czech Republic",
            "latitude":50.07,
            "longitude":14.43
        }
        },{
            "model": "universe.location",
            "pk": 52,
            "fields": {

            "city": "Copenhagen",
            "country": "Denmark",
            "latitude":55.67,
            "longitude":12.56
        }
        },{
            "model": "universe.location",
            "pk": 53,
            "fields": {

            "city": "Kinshasa",
            "country": "DRC",
            "latitude":-4.33,
            "longitude":15.31
        }
        },{
            "model": "universe.location",
            "pk": 54,
            "fields": {

            "city": "Alexandria",
            "country": "Egypt",
            "latitude":31.20,
            "longitude":29.91
        }
        },{
            "model": "universe.location",
            "pk": 55,
            "fields": {

            "city": "Cairo",
            "country": "Egypt",
            "latitude":30.04,
            "longitude":31.25
        }
        },{
            "model": "universe.location",
            "pk": 56,
            "fields": {

            "city": "Port-au-Prince",
            "country": "Haiti",
            "latitude":18.53,
            "longitude":-72.33
        }
        },{
            "model": "universe.location",
            "pk": 57,
            "fields": {

            "city": "Budapest",
            "country": "Hungary",
            "latitude":47.49,
            "longitude":19.04
        }
        },{
            "model": "universe.location",
            "pk": 58,
            "fields": {

            "city": "Kolkata",
            "country": "India",
            "latitude":22.57,
            "longitude":88.36
        }
        },{
            "model": "universe.location",
            "pk": 59,
            "fields": {

            "city": "Chennai",
            "country": "India",
            "latitude":13.05,
            "longitude":80.25
        }
        },{
            "model": "universe.location",
            "pk": 60,
            "fields": {

            "city": "Durgapur",
            "country": "India",
            "latitude":23.52,
            "longitude":87.31
        }
        },{
            "model": "universe.location",
            "pk": 61,
            "fields": {

            "city": "Mumbai",
            "country": "India",
            "latitude":19.07,
            "longitude":72.87
        }
        },{
            "model": "universe.location",
            "pk": 62,
            "fields": {

            "city": "Surakarta",
            "country": "Indonesia",
            "latitude":-7.56,
            "longitude":110.81
        }
        },{
            "model": "universe.location",
            "pk": 63,
            "fields": {

            "city": "Nazareth",
            "country": "",
            "latitude":32.69,
            "longitude":35.30
        }
        },{
            "model": "universe.location",
            "pk": 64,
            "fields": {

            "city": "Jerusalem",
            "country": "Israel",
            "latitude":31.76,
            "longitude":35.21
        }
        },{
            "model": "universe.location",
            "pk": 65,
            "fields": {

            "city": "Nairobi",
            "country": "Kenya",
            "latitude":-1.29,
            "longitude":36.82
        }
        },{
            "model": "universe.location",
            "pk": 66,
            "fields": {

            "city": "Seoul",
            "country": "Korea",
            "latitude":37.56,
            "longitude":126.97
        }
        },{
            "model": "universe.location",
            "pk": 67,
            "fields": {

            "city": "Beirut",
            "country": "Lebanon",
            "latitude":33.88,
            "longitude":35.49
        }
        },{
            "model": "universe.location",
            "pk": 68,
            "fields": {

            "city": "Inhambane",
            "country": "Mozambique",
            "latitude":-23.86,
            "longitude":35.38
        }
        },{
            "model": "universe.location",
            "pk": 69,
            "fields": {

            "city": "Patheingyee",
            "country": "Myanmar",
            "latitude":22.00,
            "longitude":96.16
        }
        },{
            "model": "universe.location",
            "pk": 70,
            "fields": {

            "city": "Lagos",
            "country": "Nigeria",
            "latitude":6.52,
            "longitude":3.37
        }
        },{
            "model": "universe.location",
            "pk": 71,
            "fields": {

            "city": "Karachi",
            "country": "Pakistan",
            "latitude":24.86,
            "longitude":67.00
        }
        },{
            "model": "universe.location",
            "pk": 72,
            "fields": {

            "city": "Szczecinek",
            "country": "Poland",
            "latitude":53.71,
            "longitude":16.69
        }
        },{
            "model": "universe.location",
            "pk": 73,
            "fields": {

            "city": "Warsaw",
            "country": "Poland",
            "latitude":52.22,
            "longitude":21.01
        }
        },{
            "model": "universe.location",
            "pk": 74,
            "fields": {

            "city": "Kazan",
            "country": "Russia",
            "latitude":55.80,
            "longitude":49.10
        }
        },{
            "model": "universe.location",
            "pk": 75,
            "fields": {

            "city": "Dakar",
            "country": "Senegal",
            "latitude":14.76,
            "longitude":-17.36
        }
        },{
            "model": "universe.location",
            "pk": 76,
            "fields": {

            "city": "Rufisque",
            "country": "Senegal",
            "latitude":14.71,
            "longitude":-17.27
        }
        },{
            "model": "universe.location",
            "pk": 77,
            "fields": {

            "city": "Johannesburg",
            "country": "South Africa",
            "latitude":-26.20,
            "longitude":28.04
        }
        },{
            "model": "universe.location",
            "pk": 78,
            "fields": {

            "city": "Tunis",
            "country": "Tunisia",
            "latitude":36.80,
            "longitude":10.18
        }
        },{
            "model": "universe.location",
            "pk": 79,
            "fields": {

            "city": "London",
            "country": "UK",
            "latitude":51.50,
            "longitude":-0.12
        }
        },{
            "model": "universe.location",
            "pk": 80,
            "fields": {

            "city": "Chicago",
            "country": "USA",
            "latitude":41.87,
            "longitude":-87.62
        }
        },{
            "model": "universe.location",
            "pk": 81,
            "fields": {

            "city": "Boston",
            "country": "USA",
            "latitude":42.21,
            "longitude":-71.30
        }
        },{
            "model": "universe.location",
            "pk": 82,
            "fields": {

            "city": "Brooklyn",
            "country": "USA",
            "latitude":40.69,
            "longitude":-73.99
        }
        },{
            "model": "universe.location",
            "pk": 83,
            "fields": {

            "city": "Harper's Ferry",
            "country": "USA",
            "latitude":39.32,
            "longitude":-77.73
        }
        },{
            "model": "universe.location",
            "pk": 84,
            "fields": {

            "city": "New Orleans",
            "country": "USA",
            "latitude":29.95,
            "longitude":-90.07
        }
        },{
            "model": "universe.location",
            "pk": 85,
            "fields": {

            "city": "Los Angeles",
            "country": "USA",
            "latitude":34.05,
            "longitude":-118.24
        }
        },{
            "model": "universe.location",
            "pk": 86,
            "fields": {

            "city": "Caracas",
            "country": "Venezuela",
            "latitude":10.50,
            "longitude":-66.91
        }
        },{
            "model": "universe.location",
            "pk": 87,
            "fields": {

            "city": "Queens",
            "country": "US",
            "latitude":40.742,
            "longitude":-73.769
        }
        },{
            "model": "universe.location",
            "pk": 88,
            "fields": {

            "city": "Agege Lagos",
            "country": "Nigeria",
            "latitude":6.465,
            "longitude":3.406
        }
        },{
            "model": "universe.location",
            "pk": 89,
            "fields": {

            "city": "Kingston",
            "country": "Jamaica",
            "latitude":17.59,
            "longitude":76.47
        }
        }




    ]